HW4
…
(b)

table2 = nzge %>%
  filter(election_year == 2014, voting_type == "Candidate") %>%
  group_by(party) %>%
  summarise(vote_count = sum(votes, na.rm = TRUE), .groups = "drop") %>%
  mutate(prop = round(vote_count/sum(vote_count)*100,2)) %>%
  select(party, prop) %>%
  arrange(desc(prop))

table2

# A tibble: 25 × 2
   party                     prop
   <chr>                    <dbl>
 1 National Party           45.5 
 2 Labour Party             33.7 
 3 Green Party               6.98
 4 Conservative Party        3.41
 5 New Zealand First Party   3.09
 6 Maori Party               1.77
 7 MANA Movement             1.36
 8 ACT New Zealand           1.17
 9 Informal Candidate Votes  1.17
10 United Future             0.62
# ℹ 15 more rows
…
